{
  "swagger": "2.0",
  "info": {
    "description": "This is swagger of mondia task",
    "version": "1.0",
    "title": "Mondia Task",
    "contact": {
      "email": "husamuddin.hamad@gmail.com"
    }
  },
  "host": "127.0.0.1:3000",
  "basePath": "/api",
  "tags": [
    {
      "name": "language",
      "description": "language resource"
    }
  ],
  "schemes": [
    "http"
  ],
  "paths": {
    "/language": {
      "post": {
        "tags": [
          "language"
        ],
        "summary": "Add a language",
        "description": "",
        "operationId": "addPet",
        "consumes": [
          "application/json"
        ],
        "produces": [
          "application/json"
        ],
        "parameters": [
          {
            "in": "body",
            "name": "body",
            "description": "Pet object that needs to be added to the store",
            "required": true,
            "schema": {
              "$ref": "#/definitions/Language"
            }
          }
        ],
        "responses": {
          "405": {
            "description": "Invalid input"
          }
        }
      },
      "patch": {
        "tags": [
          "language"
        ],
        "summary": "Update an existing language",
        "description": "",
        "operationId": "updatePet",
        "consumes": [
          "application/json"
        ],
        "produces": [
          "application/json"
        ],
        "parameters": [
          {
            "in": "body",
            "name": "body",
            "description": "Pet object that needs to be added to the store",
            "required": true,
            "schema": {
              "$ref": "#/definitions/Language"
            }
          }
        ],
        "responses": {
          "400": {
            "description": "Invalid ID supplied"
          },
          "404": {
            "description": "Pet not found"
          },
          "405": {
            "description": "Validation exception"
          }
        }
      }
    }
  },
  "definitions": {
    "Language": {
      "type": "object",
      "required": [
        "name",
        "title",
        "introduction"
      ],
      "properties": {
        "id": {
          "type": "string"
        },
        "name": {
          "type": "string"
        },
        "title": {
          "type": "string"
        },
        "example": {
          "type": "string"
        }
      }
    }
  }
}